{
  "domainsFile": "top-1m.csv",
  "startDomain": 1,
  "numberOfDomains": 500,
  "pageLoadingTime": 45000,
  "maxNumProcesses": 4,
  "recordserver": {
    "start": "recordserver/start.js",
    "hostname": "recordserver.com",
    "port": 8888,
    "key": "keys/localhost.key",
    "cert": "keys/localhost.crt"
  },
  "database": {
    "name": "inlineevents",
    "username": "inlineevents",
    "password": "inlineevents"
  },
  "event_attributes": ["onabort","onafterprint","onbeforeprint","onbeforeunload",
      "onblur","oncanplay","oncanplaythrough","onchange","onclick","oncontextmenu",
      "oncopy","oncuechange","oncut","ondblclick","ondrag","ondragend","ondragenter",
      "ondragleave","ondragover","ondragstart","ondrop","ondurationchange","onemptied",
      "onended","onerror","onfocus","onhashchange","oninput","oninvalid","onkeydown",
      "onkeypress","onkeyup","onload","onloadeddata","onloadedmetadata","onloadstart",
      "onmousedown","onmousemove","onmouseout","onmouseover","onmouseup","onmousewheel",
      "onoffline","ononline","onpagehide","onpageshow","onpaste","onpause","onplay",
      "onplaying","onpopstate","onprogress","onratechange","onreset","onresize",
      "onscroll","onsearch","onseeked","onseeking","onselect","onshow","onstalled",
      "onstorage","onsubmit","onsuspend","ontimeupdate","ontoggle","onunload",
      "onvolumechange","onwaiting","onwheel"],
  "experiments": {
    "events_collector": {
      "db_tablename": "EventDefinition",
      "docker": {
        "imageName": "events_collector",
        "stopTimeout": 0
      }
    },
    "events_caller": {
      "db_tablename": "EventEffect",
      "docker": {
        "imageName": "events_caller",
        "stopTimeout": 0
      }
    }
  }
}
